Good Reads Books
…
Good Reads Books

## # A tibble: 8,469 x 12
##    bookID title authors average_rating isbn  isbn13 language_code num_pages
##     <dbl> <chr> <chr>            <dbl> <chr> <chr>  <chr>             <dbl>
##  1      1 "Har J.K. R           4.57 0439 97804 eng                 652
##  2      2 "Har J.K. R           4.49 0439 97804 eng                 870
##  3      4 "Har J.K. R           4.42 0439 97804 eng                 352
##  4      5 "Har J.K. R           4.56 0439 97804 eng                 435
##  5      8 "Har J.K. R           4.78 0439 97804 eng                2690
##  6      9 "Una W. Fre           3.74 0976 97809 en-US               152
##  7     10 "Har J.K. R           4.73 0439 97804 eng                3342
##  8     12 "The Dougla           4.38 0517 97805 eng                 815
##  9     13 "The Dougla           4.38 0345 97803 eng                 815
## 10     14 "The Dougla           4.22 1400 97814 eng                 215
## #  with 8,459 more rows, and 4 more variables: ratings_count <dbl>,
## #   text_reviews_count <dbl>, publication_date <chr>, publisher <chr>

goodreads %>%
  count(authors)%>%
  arrange(desc(n))

## # A tibble: 5,204 x 2
##    authors                         n
##    <chr>                       <int>
##  1 Stephen King                   37
##  2 Rumiko Takahashi               36
##  3 Piers Anthony                  30
##  4 Sandra Brown                   29
##  5 Dick Francis                   28
##  6 Mercedes Lackey                28
##  7 Orson Scott Card               26
##  8 James Patterson                23
##  9 Laurell K. Hamilton            23
## 10 Margaret Weis/Tracy Hickman    23
## #  with 5,194 more rows

goodreads %>%
  count(publisher)%>%
  arrange(desc(n))

## # A tibble: 1,930 x 2
##    publisher                    n
##    <chr>                    <int>
##  1 Vintage                    255
##  2 Penguin Books              211
##  3 Penguin Classics           147
##  4 Ballantine Books           110
##  5 Mariner Books              104
##  6 HarperCollins               91
##  7 Harper Perennial            89
##  8 VIZ Media LLC               85
##  9 Bantam                      83
## 10 Grand Central Publishing    69
## #  with 1,920 more rows

goodreads %>%
  count(language_code)%>%
  arrange(desc(n))

## # A tibble: 22 x 2
##    language_code     n
##    <chr>         <int>
##  1 eng            6815
##  2 en-US          1040
##  3 en-GB           159
##  4 spa             156
##  5 fre             113
##  6 ger              73
##  7 jpn              46
##  8 mul              19
##  9 zho              13
## 10 grc              11
## #  with 12 more rows
lang <-table(goodreads$language_code)
lang

## 
##   ara en-CA en-GB en-US   eng   enm   fre   ger   glg   grc   ita   jpn   lat 
##     1     3   159  1040  6815     3   113    73     1    11     3    46     3 
##   mul    nl   nor   por   spa   srp   swe   wel   zho 
##    19     1     1     4   156     1     2     1    13

books_eng <- goodreads %>%
  filter(language_code %in% c("eng", "en-US", "en-CA", "en-GB"))

print(books_eng)

## # A tibble: 8,017 x 12
##    bookID title authors average_rating isbn  isbn13 language_code num_pages
##     <dbl> <chr> <chr>            <dbl> <chr> <chr>  <chr>             <dbl>
##  1      1 "Har J.K. R           4.57 0439 97804 eng                 652
##  2      2 "Har J.K. R           4.49 0439 97804 eng                 870
##  3      4 "Har J.K. R           4.42 0439 97804 eng                 352
##  4      5 "Har J.K. R           4.56 0439 97804 eng                 435
##  5      8 "Har J.K. R           4.78 0439 97804 eng                2690
##  6      9 "Una W. Fre           3.74 0976 97809 en-US               152
##  7     10 "Har J.K. R           4.73 0439 97804 eng                3342
##  8     12 "The Dougla           4.38 0517 97805 eng                 815
##  9     13 "The Dougla           4.38 0345 97803 eng                 815
## 10     14 "The Dougla           4.22 1400 97814 eng                 215
## #  with 8,007 more rows, and 4 more variables: ratings_count <dbl>,
## #   text_reviews_count <dbl>, publication_date <chr>, publisher <chr>
…
